<?xml version="1.0" encoding="utf-8"?>
<!-- Generator: Adobe Illustrator 25.1.0, SVG Export Plug-In . SVG Version: 6.00 Build 0)  -->
<svg version="1.1" id="Camada_1" xmlns="http://www.w3.org/2000/svg" xmlns:xlink="http://www.w3.org/1999/xlink" x="0px" y="0px"
	 viewBox="0 0 500 500" style="enable-background:new 0 0 500 500;" xml:space="preserve">
<style type="text/css">
	.st0{
		fill:url(#gradiente);
	}
</style>
 
        <linearGradient id="gradiente" x1="100%" y1="0%" x2="0%" y2="0%"> 
            
            <stop offset="0%" stop-color="#986E28">
                <animate attributeName="stop-color" values="#986E28; #FFF900; #986E28" dur="4s" repeatCount="indefinite"></animate>
            </stop>

            <stop offset="100%" stop-color="#FFF900">
                <animate attributeName="stop-color" values="#FFF900; #986E28; #FFF900" dur="4s" repeatCount="indefinite"></animate>
            </stop>

        </linearGradient> 

<path class="st0" d="M193.64,282.79L86.8,175.18c0,0-46.82-15.8-70.06,6.77S6.28,244.41,6.28,244.41l149.74,147.48
	c0,0,36.12,39.88,76,0s256.25-253.58,256.25-253.58s23.93-42.64-6.44-74.49c-20.24-21.23-73.74-3.68-73.74-3.68L193.64,282.79z"/>
</svg>
